1::com.epam.LoggingExample::main::Fri Dec 06 10:42:00 EET 2019::Msg754
1::com.epam.LoggingExample::main::Fri Dec 06 10:42:00 EET 2019::Msg755
1::com.epam.LoggingExample::main::Fri Dec 06 10:42:00 EET 2019::Msg756
1::com.epam.LoggingExample::main::Fri Dec 06 10:42:00 EET 2019::Msg757
1::com.epam.LoggingExample::main::Fri Dec 06 10:42:00 EET 2019::Msg758
1::com.epam.LoggingExample::main::Fri Dec 06 10:42:00 EET 2019::Msg759
1::com.epam.LoggingExample::main::Fri Dec 06 10:42:00 EET 2019::Msg760
1::com.epam.LoggingExample::main::Fri Dec 06 10:42:00 EET 2019::Msg761
1::com.epam.LoggingExample::main::Fri Dec 06 10:42:00 EET 2019::Msg762
1::com.epam.LoggingExample::main::Fri Dec 06 10:42:00 EET 2019::Msg763
1::com.epam.LoggingExample::main::Fri Dec 06 10:42:00 EET 2019::Msg764
1::com.epam.LoggingExample::main::Fri Dec 06 10:42:00 EET 2019::Msg765
1::com.epam.LoggingExample::main::Fri Dec 06 10:42:00 EET 2019::Msg766
1::com.epam.LoggingExample::main::Fri Dec 06 10:42:00 EET 2019::Msg767
1::com.epam.LoggingExample::main::Fri Dec 06 10:42:00 EET 2019::Msg768
1::com.epam.LoggingExample::main::Fri Dec 06 10:42:00 EET 2019::Msg769
1::com.epam.LoggingExample::main::Fri Dec 06 10:42:00 EET 2019::Msg770
1::com.epam.LoggingExample::main::Fri Dec 06 10:42:00 EET 2019::Msg771
1::com.epam.LoggingExample::main::Fri Dec 06 10:42:00 EET 2019::Msg772
1::com.epam.LoggingExample::main::Fri Dec 06 10:42:00 EET 2019::Msg773
1::com.epam.LoggingExample::main::Fri Dec 06 10:42:00 EET 2019::Msg774
1::com.epam.LoggingExample::main::Fri Dec 06 10:42:00 EET 2019::Msg775
1::com.epam.LoggingExample::main::Fri Dec 06 10:42:00 EET 2019::Msg776
1::com.epam.LoggingExample::main::Fri Dec 06 10:42:00 EET 2019::Msg777
1::com.epam.LoggingExample::main::Fri Dec 06 10:42:00 EET 2019::Msg778
1::com.epam.LoggingExample::main::Fri Dec 06 10:42:00 EET 2019::Msg779
1::com.epam.LoggingExample::main::Fri Dec 06 10:42:00 EET 2019::Msg780
1::com.epam.LoggingExample::main::Fri Dec 06 10:42:00 EET 2019::Msg781
1::com.epam.LoggingExample::main::Fri Dec 06 10:42:00 EET 2019::Msg782
