1::com.epam.LoggingExample::main::Fri Dec 06 10:42:00 EET 2019::Msg725
1::com.epam.LoggingExample::main::Fri Dec 06 10:42:00 EET 2019::Msg726
1::com.epam.LoggingExample::main::Fri Dec 06 10:42:00 EET 2019::Msg727
1::com.epam.LoggingExample::main::Fri Dec 06 10:42:00 EET 2019::Msg728
1::com.epam.LoggingExample::main::Fri Dec 06 10:42:00 EET 2019::Msg729
1::com.epam.LoggingExample::main::Fri Dec 06 10:42:00 EET 2019::Msg730
1::com.epam.LoggingExample::main::Fri Dec 06 10:42:00 EET 2019::Msg731
1::com.epam.LoggingExample::main::Fri Dec 06 10:42:00 EET 2019::Msg732
1::com.epam.LoggingExample::main::Fri Dec 06 10:42:00 EET 2019::Msg733
1::com.epam.LoggingExample::main::Fri Dec 06 10:42:00 EET 2019::Msg734
1::com.epam.LoggingExample::main::Fri Dec 06 10:42:00 EET 2019::Msg735
1::com.epam.LoggingExample::main::Fri Dec 06 10:42:00 EET 2019::Msg736
1::com.epam.LoggingExample::main::Fri Dec 06 10:42:00 EET 2019::Msg737
1::com.epam.LoggingExample::main::Fri Dec 06 10:42:00 EET 2019::Msg738
1::com.epam.LoggingExample::main::Fri Dec 06 10:42:00 EET 2019::Msg739
1::com.epam.LoggingExample::main::Fri Dec 06 10:42:00 EET 2019::Msg740
1::com.epam.LoggingExample::main::Fri Dec 06 10:42:00 EET 2019::Msg741
1::com.epam.LoggingExample::main::Fri Dec 06 10:42:00 EET 2019::Msg742
1::com.epam.LoggingExample::main::Fri Dec 06 10:42:00 EET 2019::Msg743
1::com.epam.LoggingExample::main::Fri Dec 06 10:42:00 EET 2019::Msg744
1::com.epam.LoggingExample::main::Fri Dec 06 10:42:00 EET 2019::Msg745
1::com.epam.LoggingExample::main::Fri Dec 06 10:42:00 EET 2019::Msg746
1::com.epam.LoggingExample::main::Fri Dec 06 10:42:00 EET 2019::Msg747
1::com.epam.LoggingExample::main::Fri Dec 06 10:42:00 EET 2019::Msg748
1::com.epam.LoggingExample::main::Fri Dec 06 10:42:00 EET 2019::Msg749
1::com.epam.LoggingExample::main::Fri Dec 06 10:42:00 EET 2019::Msg750
1::com.epam.LoggingExample::main::Fri Dec 06 10:42:00 EET 2019::Msg751
1::com.epam.LoggingExample::main::Fri Dec 06 10:42:00 EET 2019::Msg752
1::com.epam.LoggingExample::main::Fri Dec 06 10:42:00 EET 2019::Msg753
