1::com.epam.LoggingExample::main::Fri Dec 06 10:42:00 EET 2019::Msg928
1::com.epam.LoggingExample::main::Fri Dec 06 10:42:00 EET 2019::Msg929
1::com.epam.LoggingExample::main::Fri Dec 06 10:42:00 EET 2019::Msg930
1::com.epam.LoggingExample::main::Fri Dec 06 10:42:00 EET 2019::Msg931
1::com.epam.LoggingExample::main::Fri Dec 06 10:42:00 EET 2019::Msg932
1::com.epam.LoggingExample::main::Fri Dec 06 10:42:00 EET 2019::Msg933
1::com.epam.LoggingExample::main::Fri Dec 06 10:42:00 EET 2019::Msg934
1::com.epam.LoggingExample::main::Fri Dec 06 10:42:00 EET 2019::Msg935
1::com.epam.LoggingExample::main::Fri Dec 06 10:42:00 EET 2019::Msg936
1::com.epam.LoggingExample::main::Fri Dec 06 10:42:00 EET 2019::Msg937
1::com.epam.LoggingExample::main::Fri Dec 06 10:42:00 EET 2019::Msg938
1::com.epam.LoggingExample::main::Fri Dec 06 10:42:00 EET 2019::Msg939
1::com.epam.LoggingExample::main::Fri Dec 06 10:42:00 EET 2019::Msg940
1::com.epam.LoggingExample::main::Fri Dec 06 10:42:00 EET 2019::Msg941
1::com.epam.LoggingExample::main::Fri Dec 06 10:42:00 EET 2019::Msg942
1::com.epam.LoggingExample::main::Fri Dec 06 10:42:00 EET 2019::Msg943
1::com.epam.LoggingExample::main::Fri Dec 06 10:42:00 EET 2019::Msg944
1::com.epam.LoggingExample::main::Fri Dec 06 10:42:00 EET 2019::Msg945
1::com.epam.LoggingExample::main::Fri Dec 06 10:42:00 EET 2019::Msg946
1::com.epam.LoggingExample::main::Fri Dec 06 10:42:00 EET 2019::Msg947
1::com.epam.LoggingExample::main::Fri Dec 06 10:42:00 EET 2019::Msg948
1::com.epam.LoggingExample::main::Fri Dec 06 10:42:00 EET 2019::Msg949
1::com.epam.LoggingExample::main::Fri Dec 06 10:42:00 EET 2019::Msg950
1::com.epam.LoggingExample::main::Fri Dec 06 10:42:00 EET 2019::Msg951
1::com.epam.LoggingExample::main::Fri Dec 06 10:42:00 EET 2019::Msg952
1::com.epam.LoggingExample::main::Fri Dec 06 10:42:00 EET 2019::Msg953
1::com.epam.LoggingExample::main::Fri Dec 06 10:42:00 EET 2019::Msg954
1::com.epam.LoggingExample::main::Fri Dec 06 10:42:00 EET 2019::Msg955
1::com.epam.LoggingExample::main::Fri Dec 06 10:42:00 EET 2019::Msg956
