1::com.epam.LoggingExample::main::Fri Dec 06 10:42:00 EET 2019::Msg812
1::com.epam.LoggingExample::main::Fri Dec 06 10:42:00 EET 2019::Msg813
1::com.epam.LoggingExample::main::Fri Dec 06 10:42:00 EET 2019::Msg814
1::com.epam.LoggingExample::main::Fri Dec 06 10:42:00 EET 2019::Msg815
1::com.epam.LoggingExample::main::Fri Dec 06 10:42:00 EET 2019::Msg816
1::com.epam.LoggingExample::main::Fri Dec 06 10:42:00 EET 2019::Msg817
1::com.epam.LoggingExample::main::Fri Dec 06 10:42:00 EET 2019::Msg818
1::com.epam.LoggingExample::main::Fri Dec 06 10:42:00 EET 2019::Msg819
1::com.epam.LoggingExample::main::Fri Dec 06 10:42:00 EET 2019::Msg820
1::com.epam.LoggingExample::main::Fri Dec 06 10:42:00 EET 2019::Msg821
1::com.epam.LoggingExample::main::Fri Dec 06 10:42:00 EET 2019::Msg822
1::com.epam.LoggingExample::main::Fri Dec 06 10:42:00 EET 2019::Msg823
1::com.epam.LoggingExample::main::Fri Dec 06 10:42:00 EET 2019::Msg824
1::com.epam.LoggingExample::main::Fri Dec 06 10:42:00 EET 2019::Msg825
1::com.epam.LoggingExample::main::Fri Dec 06 10:42:00 EET 2019::Msg826
1::com.epam.LoggingExample::main::Fri Dec 06 10:42:00 EET 2019::Msg827
1::com.epam.LoggingExample::main::Fri Dec 06 10:42:00 EET 2019::Msg828
1::com.epam.LoggingExample::main::Fri Dec 06 10:42:00 EET 2019::Msg829
1::com.epam.LoggingExample::main::Fri Dec 06 10:42:00 EET 2019::Msg830
1::com.epam.LoggingExample::main::Fri Dec 06 10:42:00 EET 2019::Msg831
1::com.epam.LoggingExample::main::Fri Dec 06 10:42:00 EET 2019::Msg832
1::com.epam.LoggingExample::main::Fri Dec 06 10:42:00 EET 2019::Msg833
1::com.epam.LoggingExample::main::Fri Dec 06 10:42:00 EET 2019::Msg834
1::com.epam.LoggingExample::main::Fri Dec 06 10:42:00 EET 2019::Msg835
1::com.epam.LoggingExample::main::Fri Dec 06 10:42:00 EET 2019::Msg836
1::com.epam.LoggingExample::main::Fri Dec 06 10:42:00 EET 2019::Msg837
1::com.epam.LoggingExample::main::Fri Dec 06 10:42:00 EET 2019::Msg838
1::com.epam.LoggingExample::main::Fri Dec 06 10:42:00 EET 2019::Msg839
1::com.epam.LoggingExample::main::Fri Dec 06 10:42:00 EET 2019::Msg840
