1::com.epam.LoggingExample::main::Fri Dec 06 10:42:00 EET 2019::Msg841
1::com.epam.LoggingExample::main::Fri Dec 06 10:42:00 EET 2019::Msg842
1::com.epam.LoggingExample::main::Fri Dec 06 10:42:00 EET 2019::Msg843
1::com.epam.LoggingExample::main::Fri Dec 06 10:42:00 EET 2019::Msg844
1::com.epam.LoggingExample::main::Fri Dec 06 10:42:00 EET 2019::Msg845
1::com.epam.LoggingExample::main::Fri Dec 06 10:42:00 EET 2019::Msg846
1::com.epam.LoggingExample::main::Fri Dec 06 10:42:00 EET 2019::Msg847
1::com.epam.LoggingExample::main::Fri Dec 06 10:42:00 EET 2019::Msg848
1::com.epam.LoggingExample::main::Fri Dec 06 10:42:00 EET 2019::Msg849
1::com.epam.LoggingExample::main::Fri Dec 06 10:42:00 EET 2019::Msg850
1::com.epam.LoggingExample::main::Fri Dec 06 10:42:00 EET 2019::Msg851
1::com.epam.LoggingExample::main::Fri Dec 06 10:42:00 EET 2019::Msg852
1::com.epam.LoggingExample::main::Fri Dec 06 10:42:00 EET 2019::Msg853
1::com.epam.LoggingExample::main::Fri Dec 06 10:42:00 EET 2019::Msg854
1::com.epam.LoggingExample::main::Fri Dec 06 10:42:00 EET 2019::Msg855
1::com.epam.LoggingExample::main::Fri Dec 06 10:42:00 EET 2019::Msg856
1::com.epam.LoggingExample::main::Fri Dec 06 10:42:00 EET 2019::Msg857
1::com.epam.LoggingExample::main::Fri Dec 06 10:42:00 EET 2019::Msg858
1::com.epam.LoggingExample::main::Fri Dec 06 10:42:00 EET 2019::Msg859
1::com.epam.LoggingExample::main::Fri Dec 06 10:42:00 EET 2019::Msg860
1::com.epam.LoggingExample::main::Fri Dec 06 10:42:00 EET 2019::Msg861
1::com.epam.LoggingExample::main::Fri Dec 06 10:42:00 EET 2019::Msg862
1::com.epam.LoggingExample::main::Fri Dec 06 10:42:00 EET 2019::Msg863
1::com.epam.LoggingExample::main::Fri Dec 06 10:42:00 EET 2019::Msg864
1::com.epam.LoggingExample::main::Fri Dec 06 10:42:00 EET 2019::Msg865
1::com.epam.LoggingExample::main::Fri Dec 06 10:42:00 EET 2019::Msg866
1::com.epam.LoggingExample::main::Fri Dec 06 10:42:00 EET 2019::Msg867
1::com.epam.LoggingExample::main::Fri Dec 06 10:42:00 EET 2019::Msg868
1::com.epam.LoggingExample::main::Fri Dec 06 10:42:00 EET 2019::Msg869
